{
  "tracks": {
    "href": "https://api.spotify.com/v1/search?offset=0&limit=5&query=track%3Aspicy%20genre%3Ak-pop&type=track&locale=en-US,en;q%3D0.9",
    "limit": 5,
    "next": "https://api.spotify.com/v1/search?offset=5&limit=5&query=track%3Aspicy%20genre%3Ak-pop&type=track&locale=en-US,en;q%3D0.9",
    "offset": 0,
    "previous": null,
    "total": 81,
    "items": [
      {
        "album": {
          "album_type": "single",
          "artists": [
            {
              "external_urls": {
                "spotify": "https://open.spotify.com/artist/6YVMFz59CuY7ngCxTxjpxE"
              },
              "href": "https://api.spotify.com/v1/artists/6YVMFz59CuY7ngCxTxjpxE",
              "id": "6YVMFz59CuY7ngCxTxjpxE",
              "name": "aespa",
              "type": "artist",
              "uri": "spotify:artist:6YVMFz59CuY7ngCxTxjpxE"
            },
            {
              "external_urls": {
                "spotify": "https://open.spotify.com/artist/6iPbI11utXY9CVhX6SPXEg"
              },
              "href": "https://api.spotify.com/v1/artists/6iPbI11utXY9CVhX6SPXEg",
              "id": "6iPbI11utXY9CVhX6SPXEg",
              "name": "Nitepunk",
              "type": "artist",
              "uri": "spotify:artist:6iPbI11utXY9CVhX6SPXEg"
            }
          ],
          "available_markets": [
            
          ],
          "external_urls": {
            "spotify": "https://open.spotify.com/album/55N0UTP5992idhnEYOKYd9"
          },
          "href": "https://api.spotify.com/v1/albums/55N0UTP5992idhnEYOKYd9",
          "id": "55N0UTP5992idhnEYOKYd9",
          "images": [
            {
              "height": 640,
              "width": 640,
              "url": "https://i.scdn.co/image/ab67616d0000b27324936098cb2874153291a3f9"
            },
            {
              "height": 300,
              "width": 300,
              "url": "https://i.scdn.co/image/ab67616d00001e0224936098cb2874153291a3f9"
            },
            {
              "height": 64,
              "width": 64,
              "url": "https://i.scdn.co/image/ab67616d0000485124936098cb2874153291a3f9"
            }
          ],
          "is_playable": true,
          "name": "iScreaM Vol.26 : Spicy Remix",
          "release_date": "2023-09-15",
          "release_date_precision": "day",
          "total_tracks": 2,
          "type": "album",
          "uri": "spotify:album:55N0UTP5992idhnEYOKYd9"
        },
        "artists": [
          {
            "external_urls": {
              "spotify": "https://open.spotify.com/artist/6YVMFz59CuY7ngCxTxjpxE"
            },
            "href": "https://api.spotify.com/v1/artists/6YVMFz59CuY7ngCxTxjpxE",
            "id": "6YVMFz59CuY7ngCxTxjpxE",
            "name": "aespa",
            "type": "artist",
            "uri": "spotify:artist:6YVMFz59CuY7ngCxTxjpxE"
          }
        ],
        "available_markets": [
          
        ],
        "disc_number": 1,
        "duration_ms": 197040,
        "explicit": false,
        "external_ids": {
          "isrc": "KRA302300145"
        },
        "external_urls": {
          "spotify": "https://open.spotify.com/track/3gtlthEgyulDfT8dWdKsnv"
        },
        "href": "https://api.spotify.com/v1/tracks/3gtlthEgyulDfT8dWdKsnv",
        "id": "3gtlthEgyulDfT8dWdKsnv",
        "is_local": false,
        "is_playable": true,
        "name": "Spicy",
        "popularity": 67,
        "preview_url": null,
        "track_number": 2,
        "type": "track",
        "uri": "spotify:track:3gtlthEgyulDfT8dWdKsnv"
      },
      {
        "album": {
          "album_type": "single",
          "artists": [
            {
              "external_urls": {
                "spotify": "https://open.spotify.com/artist/6YVMFz59CuY7ngCxTxjpxE"
              },
              "href": "https://api.spotify.com/v1/artists/6YVMFz59CuY7ngCxTxjpxE",
              "id": "6YVMFz59CuY7ngCxTxjpxE",
              "name": "aespa",
              "type": "artist",
              "uri": "spotify:artist:6YVMFz59CuY7ngCxTxjpxE"
            }
          ],
          "available_markets": [
            
          ],
          "external_urls": {
            "spotify": "https://open.spotify.com/album/69xF8jTd0c4Zoo7DT3Rwrn"
          },
          "href": "https://api.spotify.com/v1/albums/69xF8jTd0c4Zoo7DT3Rwrn",
          "id": "69xF8jTd0c4Zoo7DT3Rwrn",
          "images": [
            {
              "height": 640,
              "width": 640,
              "url": "https://i.scdn.co/image/ab67616d0000b27304878afb19613a94d37b29ce"
            },
            {
              "height": 300,
              "width": 300,
              "url": "https://i.scdn.co/image/ab67616d00001e0204878afb19613a94d37b29ce"
            },
            {
              "height": 64,
              "width": 64,
              "url": "https://i.scdn.co/image/ab67616d0000485104878afb19613a94d37b29ce"
            }
          ],
          "is_playable": true,
          "name": "MY WORLD - The 3rd Mini Album",
          "release_date": "2023-05-08",
          "release_date_precision": "day",
          "total_tracks": 6,
          "type": "album",
          "uri": "spotify:album:69xF8jTd0c4Zoo7DT3Rwrn"
        },
        "artists": [
          {
            "external_urls": {
              "spotify": "https://open.spotify.com/artist/6YVMFz59CuY7ngCxTxjpxE"
            },
            "href": "https://api.spotify.com/v1/artists/6YVMFz59CuY7ngCxTxjpxE",
            "id": "6YVMFz59CuY7ngCxTxjpxE",
            "name": "aespa",
            "type": "artist",
            "uri": "spotify:artist:6YVMFz59CuY7ngCxTxjpxE"
          }
        ],
        "available_markets": [
          
        ],
        "disc_number": 1,
        "duration_ms": 197040,
        "explicit": false,
        "external_ids": {
          "isrc": "KRA302300145"
        },
        "external_urls": {
          "spotify": "https://open.spotify.com/track/1ULdASrNy5rurl1TZfFaMP"
        },
        "href": "https://api.spotify.com/v1/tracks/1ULdASrNy5rurl1TZfFaMP",
        "id": "1ULdASrNy5rurl1TZfFaMP",
        "is_local": false,
        "is_playable": true,
        "name": "Spicy",
        "popularity": 64,
        "preview_url": null,
        "track_number": 2,
        "type": "track",
        "uri": "spotify:track:1ULdASrNy5rurl1TZfFaMP"
      },
      {
        "album": {
          "album_type": "single",
          "artists": [
            {
              "external_urls": {
                "spotify": "https://open.spotify.com/artist/0tzSBCPJZmHTdOA3ZV2mN3"
              },
              "href": "https://api.spotify.com/v1/artists/0tzSBCPJZmHTdOA3ZV2mN3",
              "id": "0tzSBCPJZmHTdOA3ZV2mN3",
              "name": "CL",
              "type": "artist",
              "uri": "spotify:artist:0tzSBCPJZmHTdOA3ZV2mN3"
            }
          ],
          "available_markets": [
            
          ],
          "external_urls": {
            "spotify": "https://open.spotify.com/album/187GdUKB6sx3DZaL6wpxnO"
          },
          "href": "https://api.spotify.com/v1/albums/187GdUKB6sx3DZaL6wpxnO",
          "id": "187GdUKB6sx3DZaL6wpxnO",
          "images": [
            {
              "height": 640,
              "width": 640,
              "url": "https://i.scdn.co/image/ab67616d0000b2738fad84454fc5a6ddde5cfff5"
            },
            {
              "height": 300,
              "width": 300,
              "url": "https://i.scdn.co/image/ab67616d00001e028fad84454fc5a6ddde5cfff5"
            },
            {
              "height": 64,
              "width": 64,
              "url": "https://i.scdn.co/image/ab67616d000048518fad84454fc5a6ddde5cfff5"
            }
          ],
          "is_playable": true,
          "name": "SPICY",
          "release_date": "2021-08-24",
          "release_date_precision": "day",
          "total_tracks": 1,
          "type": "album",
          "uri": "spotify:album:187GdUKB6sx3DZaL6wpxnO"
        },
        "artists": [
          {
            "external_urls": {
              "spotify": "https://open.spotify.com/artist/0tzSBCPJZmHTdOA3ZV2mN3"
            },
            "href": "https://api.spotify.com/v1/artists/0tzSBCPJZmHTdOA3ZV2mN3",
            "id": "0tzSBCPJZmHTdOA3ZV2mN3",
            "name": "CL",
            "type": "artist",
            "uri": "spotify:artist:0tzSBCPJZmHTdOA3ZV2mN3"
          }
        ],
        "available_markets": [
          
        ],
        "disc_number": 1,
        "duration_ms": 194715,
        "explicit": false,
        "external_ids": {
          "isrc": "QMFME2182250"
        },
        "external_urls": {
          "spotify": "https://open.spotify.com/track/0KGn1PDH5cqmD4B8GMVfae"
        },
        "href": "https://api.spotify.com/v1/tracks/0KGn1PDH5cqmD4B8GMVfae",
        "id": "0KGn1PDH5cqmD4B8GMVfae",
        "is_local": false,
        "is_playable": true,
        "name": "SPICY",
        "popularity": 37,
        "preview_url": null,
        "track_number": 1,
        "type": "track",
        "uri": "spotify:track:0KGn1PDH5cqmD4B8GMVfae"
      },
      {
        "album": {
          "album_type": "single",
          "artists": [
            {
              "external_urls": {
                "spotify": "https://open.spotify.com/artist/6YVMFz59CuY7ngCxTxjpxE"
              },
              "href": "https://api.spotify.com/v1/artists/6YVMFz59CuY7ngCxTxjpxE",
              "id": "6YVMFz59CuY7ngCxTxjpxE",
              "name": "aespa",
              "type": "artist",
              "uri": "spotify:artist:6YVMFz59CuY7ngCxTxjpxE"
            },
            {
              "external_urls": {
                "spotify": "https://open.spotify.com/artist/6iPbI11utXY9CVhX6SPXEg"
              },
              "href": "https://api.spotify.com/v1/artists/6iPbI11utXY9CVhX6SPXEg",
              "id": "6iPbI11utXY9CVhX6SPXEg",
              "name": "Nitepunk",
              "type": "artist",
              "uri": "spotify:artist:6iPbI11utXY9CVhX6SPXEg"
            }
          ],
          "available_markets": [
            
          ],
          "external_urls": {
            "spotify": "https://open.spotify.com/album/55N0UTP5992idhnEYOKYd9"
          },
          "href": "https://api.spotify.com/v1/albums/55N0UTP5992idhnEYOKYd9",
          "id": "55N0UTP5992idhnEYOKYd9",
          "images": [
            {
              "height": 640,
              "width": 640,
              "url": "https://i.scdn.co/image/ab67616d0000b27324936098cb2874153291a3f9"
            },
            {
              "height": 300,
              "width": 300,
              "url": "https://i.scdn.co/image/ab67616d00001e0224936098cb2874153291a3f9"
            },
            {
              "height": 64,
              "width": 64,
              "url": "https://i.scdn.co/image/ab67616d0000485124936098cb2874153291a3f9"
            }
          ],
          "is_playable": true,
          "name": "iScreaM Vol.26 : Spicy Remix",
          "release_date": "2023-09-15",
          "release_date_precision": "day",
          "total_tracks": 2,
          "type": "album",
          "uri": "spotify:album:55N0UTP5992idhnEYOKYd9"
        },
        "artists": [
          {
            "external_urls": {
              "spotify": "https://open.spotify.com/artist/6YVMFz59CuY7ngCxTxjpxE"
            },
            "href": "https://api.spotify.com/v1/artists/6YVMFz59CuY7ngCxTxjpxE",
            "id": "6YVMFz59CuY7ngCxTxjpxE",
            "name": "aespa",
            "type": "artist",
            "uri": "spotify:artist:6YVMFz59CuY7ngCxTxjpxE"
          },
          {
            "external_urls": {
              "spotify": "https://open.spotify.com/artist/6iPbI11utXY9CVhX6SPXEg"
            },
            "href": "https://api.spotify.com/v1/artists/6iPbI11utXY9CVhX6SPXEg",
            "id": "6iPbI11utXY9CVhX6SPXEg",
            "name": "Nitepunk",
            "type": "artist",
            "uri": "spotify:artist:6iPbI11utXY9CVhX6SPXEg"
          }
        ],
        "available_markets": [
          
        ],
        "disc_number": 1,
        "duration_ms": 190000,
        "explicit": false,
        "external_ids": {
          "isrc": "KRA302300338"
        },
        "external_urls": {
          "spotify": "https://open.spotify.com/track/41Kf9FQ2Dxj81cjQpEWDUJ"
        },
        "href": "https://api.spotify.com/v1/tracks/41Kf9FQ2Dxj81cjQpEWDUJ",
        "id": "41Kf9FQ2Dxj81cjQpEWDUJ",
        "is_local": false,
        "is_playable": true,
        "name": "Spicy - Nitepunk Remix",
        "popularity": 41,
        "preview_url": null,
        "track_number": 1,
        "type": "track",
        "uri": "spotify:track:41Kf9FQ2Dxj81cjQpEWDUJ"
      },
      {
        "album": {
          "album_type": "album",
          "artists": [
            {
              "external_urls": {
                "spotify": "https://open.spotify.com/artist/0tzSBCPJZmHTdOA3ZV2mN3"
              },
              "href": "https://api.spotify.com/v1/artists/0tzSBCPJZmHTdOA3ZV2mN3",
              "id": "0tzSBCPJZmHTdOA3ZV2mN3",
              "name": "CL",
              "type": "artist",
              "uri": "spotify:artist:0tzSBCPJZmHTdOA3ZV2mN3"
            }
          ],
          "available_markets": [
            
          ],
          "external_urls": {
            "spotify": "https://open.spotify.com/album/32lsJQmgxK7swVFGZYfQWg"
          },
          "href": "https://api.spotify.com/v1/albums/32lsJQmgxK7swVFGZYfQWg",
          "id": "32lsJQmgxK7swVFGZYfQWg",
          "images": [
            {
              "height": 640,
              "width": 640,
              "url": "https://i.scdn.co/image/ab67616d0000b27322e1a4d9a2016a78d8aa9924"
            },
            {
              "height": 300,
              "width": 300,
              "url": "https://i.scdn.co/image/ab67616d00001e0222e1a4d9a2016a78d8aa9924"
            },
            {
              "height": 64,
              "width": 64,
              "url": "https://i.scdn.co/image/ab67616d0000485122e1a4d9a2016a78d8aa9924"
            }
          ],
          "is_playable": true,
          "name": "ALPHA",
          "release_date": "2021-10-20",
          "release_date_precision": "day",
          "total_tracks": 11,
          "type": "album",
          "uri": "spotify:album:32lsJQmgxK7swVFGZYfQWg"
        },
        "artists": [
          {
            "external_urls": {
              "spotify": "https://open.spotify.com/artist/0tzSBCPJZmHTdOA3ZV2mN3"
            },
            "href": "https://api.spotify.com/v1/artists/0tzSBCPJZmHTdOA3ZV2mN3",
            "id": "0tzSBCPJZmHTdOA3ZV2mN3",
            "name": "CL",
            "type": "artist",
            "uri": "spotify:artist:0tzSBCPJZmHTdOA3ZV2mN3"
          }
        ],
        "available_markets": [
          
        ],
        "disc_number": 1,
        "duration_ms": 194715,
        "explicit": false,
        "external_ids": {
          "isrc": "QMFME2182250"
        },
        "external_urls": {
          "spotify": "https://open.spotify.com/track/1k7WUkZrKqDMf2IOxVFWjW"
        },
        "href": "https://api.spotify.com/v1/tracks/1k7WUkZrKqDMf2IOxVFWjW",
        "id": "1k7WUkZrKqDMf2IOxVFWjW",
        "is_local": false,
        "is_playable": true,
        "name": "SPICY",
        "popularity": 40,
        "preview_url": null,
        "track_number": 1,
        "type": "track",
        "uri": "spotify:track:1k7WUkZrKqDMf2IOxVFWjW"
      }
    ]
  }
}